"CODE","DESCRIPTION","WEIGHT","LOAD","UNIT PRICE","QTY","PRICExQTY"
"RT60VL","fiddle/aluminum/delrin/roller bearing/shackle/low load","214 gr","1400 Kg","€ 207","1","€ 207"
"CO45","aluminum/delrin/ball bearing/low load","n.d.","1000 Kg","€ 115","2","€ 230"
"YC40SA","single/becket/aluminum/delrin/ball bearing/shackle","n.d.","n.d.","€ 49","1","€ 49"
"PA80","aluminum/delrin/ball bearing/shackle","","","€ 180","2","€ 360"
"PA60","aluminum/delrin/ball bearing/shackle","n.d.","n.d.","€ 140","1","€ 140"
"RT55V","single/aluminum/titanium/roller bearing/soft attachment/high load/high performance","","","€ 980","1","€ 980"
"","","","",""
"","","","","","TOTAL","€ 1966"
